<svg id="Group_324" data-name="Group 324" xmlns="http://www.w3.org/2000/svg" width="12.283" height="13.1" viewBox="0 0 12.283 13.1">
  <path id="Path_107" data-name="Path 107" d="M27.977.308a.407.407,0,0,0-.294-.292.412.412,0,0,0-.4.114,9.221,9.221,0,0,1-3.021,1.6A2.73,2.73,0,0,0,22.6,3.389a3.479,3.479,0,0,0,.52,3c.009.016.029.02.04.034a17.743,17.743,0,0,0-1.118,3.658C20.189,1.783,16.7.109,16.542.037A.409.409,0,1,0,16.2.782c.039.018,3.937,1.894,5.506,11.972a.41.41,0,0,0,.4.346h.023a.41.41,0,0,0,.386-.391A19.136,19.136,0,0,1,23.929,6.7a3.729,3.729,0,0,0,.571.046,3.806,3.806,0,0,0,3.269-1.908c.007-.012.015-.024.021-.037C28.674,3.088,28.006.421,27.977.308Zm-.906,4.1A2.992,2.992,0,0,1,24.3,5.929a8.781,8.781,0,0,1,1.378-1.962.409.409,0,1,0-.594-.564A9.622,9.622,0,0,0,23.593,5.52a2.5,2.5,0,0,1-.222-1.865,1.934,1.934,0,0,1,1.183-1.163,13.9,13.9,0,0,0,2.754-1.349A5.877,5.877,0,0,1,27.072,4.4Z" transform="translate(-15.963 0)" fill="#015c33"/>
</svg>
